Listing previously created instances...
Starting now: 2020-12-14 14:33:20.954619455 -0300 -03 m=+0.749009798
API response time: 1.778491755s
Instace created: 1.778556394s
Instance ID:  i-0ec0f0441311f0bfb
Waiting for Public IP Address to become available for  i-0ec0f0441311f0bfb
Starting to ping instance until first response: 2.621802021s
PING 3.239.125.143 (3.239.125.143):
24 bytes from 3.239.125.143: icmp_seq=23 time=241.539132ms
Got first ping response time: 25.864024614s
Exiting pinger...
Got SSH connection: 31.032636476s
Trying to run 'ls' command...
Success!
Successfully tagged instance
Waiting for instance state to become 'running'...
Instance running: 33.050056858s
Requesting instance shutdown...
Instance shutdown resquested...
